[gd_resource type="DynamicFont" load_steps=2 format=2]

[sub_resource type="DynamicFontData" id=1]
font_path = "res://assets/fonts/Note-this/Note_this.ttf"

[resource]
size = 64
font_data = SubResource( 1 )
