[gd_scene load_steps=4 format=2]

[ext_resource path="res://assets/art/non-food/plastic-bubble-wrap-6dcb20a18ad2199721eaa1b1f228db7b.png" type="Texture" id=1]
[ext_resource path="res://ingredients/Ingredient.tscn" type="PackedScene" id=2]

[sub_resource type="RectangleShape2D" id=1]
extents = Vector2( 138, 138.7 )

[node name="Bubble Wrap" instance=ExtResource( 2 )]

[node name="Sprite" parent="." index="0"]
scale = Vector2( 0.5, 0.5 )
texture = ExtResource( 1 )

[node name="CollisionShape2D" parent="." index="1"]
position = Vector2( 0.5, 0.5 )
shape = SubResource( 1 )
