[gd_scene load_steps=4 format=2]

[ext_resource path="res://assets/art/fridge/condiments_drinks/sauce_cheesy.svg" type="Texture" id=1]
[ext_resource path="res://ingredients/Ingredient.tscn" type="PackedScene" id=2]

[sub_resource type="CapsuleShape2D" id=1]
radius = 81.5
height = 122.8

[node name="Cheese Sauce" instance=ExtResource( 2 )]

[node name="Sprite" parent="." index="0"]
texture = ExtResource( 1 )

[node name="CollisionShape2D" parent="." index="1"]
shape = SubResource( 1 )
