[gd_scene load_steps=4 format=2]

[ext_resource path="res://assets/art/mud.png" type="Texture" id=1]
[ext_resource path="res://ingredients/Ingredient.tscn" type="PackedScene" id=2]

[sub_resource type="RectangleShape2D" id=1]
extents = Vector2( 64.5, 59.4 )

[node name="Mud" instance=ExtResource( 2 )]

[node name="Sprite" parent="." index="0"]
texture = ExtResource( 1 )

[node name="CollisionShape2D" parent="." index="1"]
shape = SubResource( 1 )
