[gd_scene load_steps=4 format=2]

[ext_resource path="res://ingredients/Ingredient.tscn" type="PackedScene" id=1]
[ext_resource path="res://assets/art/non-food/box_packing_peanuts.png" type="Texture" id=2]

[sub_resource type="RectangleShape2D" id=1]
extents = Vector2( 111, 68.9 )

[node name="Packing Peanuts" instance=ExtResource( 1 )]

[node name="Sprite" parent="." index="0"]
texture = ExtResource( 2 )

[node name="CollisionShape2D" parent="." index="1"]
position = Vector2( -2, -1.5 )
shape = SubResource( 1 )
