[gd_scene load_steps=4 format=2]

[ext_resource path="res://assets/art/pantry/strawberry-5281066.png" type="Texture" id=1]
[ext_resource path="res://ingredients/Ingredient.tscn" type="PackedScene" id=2]

[sub_resource type="RectangleShape2D" id=1]
extents = Vector2( 54, 76.4 )

[node name="Strawberry Jam" instance=ExtResource( 2 )]

[node name="Sprite" parent="." index="0"]
scale = Vector2( 0.25, 0.25 )
texture = ExtResource( 1 )

[node name="CollisionShape2D" parent="." index="1"]
shape = SubResource( 1 )
